<?xml version="1.0" encoding="UTF-8" standalone="no"?>
<svg width="16px" height="16px" viewBox="0 0 16 16" version="1.1" xmlns="http://www.w3.org/2000/svg" xmlns:xlink="http://www.w3.org/1999/xlink">
    <!-- Generator: Sketch 3.7.2 (28276) - http://www.bohemiancoding.com/sketch -->
    <title>icon-rss</title>
    <desc>Created with Sketch.</desc>
    <defs></defs>
    <g id="website" stroke="none" stroke-width="1" fill="none" fill-rule="evenodd" font-size="20" font-family="FontAwesome" font-weight="normal">
        <g id="frontpage" transform="translate(-761.000000, -5455.000000)" fill="#000000">
            <g id="footer" transform="translate(448.000000, 5325.000000)">
                <g id="social" transform="translate(216.000000, 129.000000)">
                    <text id="icon-rss">
                        <tspan x="97" y="17"></tspan>
                    </text>
                </g>
            </g>
        </g>
    </g>
</svg>