<?xml version="1.0" encoding="UTF-8" standalone="no"?>
<svg width="100px" height="23px" viewBox="0 0 100 23" version="1.1" xmlns="http://www.w3.org/2000/svg" xmlns:xlink="http://www.w3.org/1999/xlink">
    <!-- Generator: Sketch 3.7.2 (28276) - http://www.bohemiancoding.com/sketch -->
    <title>logo</title>
    <desc>Created with Sketch.</desc>
    <defs></defs>
    <g id="website" stroke="none" stroke-width="1" fill="none" fill-rule="evenodd">
        <g id="frontpage" transform="translate(-670.000000, -5325.000000)" fill="#000000">
            <g id="footer" transform="translate(448.000000, 5325.000000)">
                <g id="logo" transform="translate(222.000000, 0.000000)">
                    <path d="M6.38075314,5.45427376 C5.93245442,5.82287493 5.70830843,6.31101509 5.70830843,6.91870891 C5.70830843,7.52640272 5.98226464,8.00956186 6.5301853,8.36820084 C7.07810595,8.72683981 8.34328556,9.15022669 10.3257621,9.63837418 C12.3082386,10.1265217 13.8473745,10.8587319 14.9432158,11.8350269 C16.0390571,12.8113219 16.5869695,14.2358942 16.5869695,16.1087866 C16.5869695,17.981679 15.8846454,19.5008908 14.4799761,20.6664674 C13.0753068,21.8320441 11.2273476,22.4148237 8.93604304,22.4148237 C5.62859474,22.4148237 2.64994351,21.1894922 0,18.7387926 L2.77943814,15.3317394 C5.0308939,17.3042537 7.11296115,18.2904961 9.02570233,18.2904961 C9.88245099,18.2904961 10.554889,18.1061983 11.0430365,17.7375971 C11.531184,17.368996 11.775254,16.8708938 11.775254,16.2432756 C11.775254,15.6156574 11.5162409,15.1175551 10.9982068,14.748954 C10.4801727,14.3803528 9.45408219,14.0067762 7.91990436,13.6282128 C5.48912911,13.0504056 3.71090421,12.2982712 2.58517633,11.3717872 C1.45944845,10.4453032 0.896592947,8.99084474 0.896592947,7.0083682 C0.896592947,5.02589166 1.60887911,3.49671787 3.0334728,2.42080096 C4.4580665,1.34488404 6.23629139,0.806933652 8.36820084,0.806933652 C9.76290795,0.806933652 11.1575941,1.04602271 12.5523013,1.52420801 C13.9470084,2.00239331 15.1623778,2.67981231 16.1984459,3.55648536 L13.8374178,6.96353855 C12.0242986,5.58875583 10.1514342,4.90137478 8.21876868,4.90137478 C7.44171757,4.90137478 6.82905185,5.08567259 6.38075314,5.45427376 L6.38075314,5.45427376 Z M24.5965332,13.5086671 L24.5965332,22.1757322 L20.1135684,22.1757322 L20.1135684,0 L24.5965332,0 L24.5965332,7.89001793 C25.9513915,6.51523521 27.4706033,5.82785415 29.154214,5.82785415 C30.8378247,5.82785415 32.257416,6.42557681 33.4130305,7.62104005 C34.5686449,8.81650329 35.1464435,10.4104304 35.1464435,12.4028691 L35.1464435,22.1757322 L30.6634788,22.1757322 L30.6634788,13.3891213 C30.6634788,10.9184973 29.7569328,9.68320383 27.9438135,9.68320383 C27.0472161,9.68320383 26.2651956,10.0069703 25.5977286,10.6545129 C24.9302617,11.3020554 24.5965332,12.2534307 24.5965332,13.5086671 L24.5965332,13.5086671 Z M52.8690974,22.1757322 L48.6551106,22.1757322 L48.6551106,20.2331142 C47.4994961,21.6875944 46.0699428,22.4148237 44.3664077,22.4148237 C42.6628725,22.4148237 41.2333192,21.9217025 40.0777047,20.9354453 C38.9220903,19.9491881 38.3442917,18.6341983 38.3442917,16.9904363 C38.3442917,15.3466744 38.9420143,14.1163619 40.1374776,13.299462 C41.3329408,12.4825622 42.9667161,12.0741184 45.0388524,12.0741184 L48.3861327,12.0741184 L48.3861327,11.9844591 C48.3861327,10.2709617 47.4795867,9.41422594 45.6664674,9.41422594 C44.8894163,9.41422594 44.0675477,9.56863763 43.2008368,9.87746563 C42.334126,10.1862936 41.6019157,10.5698323 41.0041841,11.0280932 L39.0017932,8.12910938 C41.1137782,6.59493156 43.5245929,5.82785415 46.2343096,5.82785415 C48.1868996,5.82785415 49.7808267,6.31599432 51.0161387,7.2922893 C52.2514507,8.26858428 52.8690974,9.81270114 52.8690974,11.9246862 L52.8690974,22.1757322 Z M48.3562463,16.0490137 L48.3562463,15.2719665 L45.5469217,15.2719665 C43.7537268,15.2719665 42.8571429,15.829841 42.8571429,16.9456067 C42.8571429,17.5234139 43.0713268,17.9667249 43.4997011,18.2755529 C43.9280755,18.5843809 44.5407412,18.7387926 45.3377167,18.7387926 C46.1346922,18.7387926 46.8370163,18.4947225 47.4447101,18.006575 C48.0524039,17.5184275 48.3562463,16.8659136 48.3562463,16.0490137 L48.3562463,16.0490137 Z M67.3341303,14.7638972 L67.3341303,6.09683204 L71.8469815,6.09683204 L71.8469815,22.1757322 L67.3341303,22.1757322 L67.3341303,20.0537956 C66.2183646,21.6278222 64.7788492,22.4148237 63.0155409,22.4148237 C61.2522327,22.4148237 59.7728691,21.8619302 58.5774059,20.7561267 C57.3819426,19.6503232 56.78422,18.0115669 56.78422,15.8398087 L56.78422,6.09683204 L61.2970711,6.09683204 L61.2970711,14.8535565 C61.2970711,17.3241805 62.2036172,18.559474 64.0167364,18.559474 C64.9133338,18.559474 65.6903733,18.2357076 66.3478781,17.588165 C67.0053828,16.9406224 67.3341303,15.9992092 67.3341303,14.7638972 L67.3341303,14.7638972 Z M80.5738195,13.2098027 L80.5738195,22.1757322 L76.0908548,22.1757322 L76.0908548,6.09683204 L80.5738195,6.09683204 L80.5738195,7.89001793 C81.9286778,6.51523521 83.4528706,5.82785415 85.1464435,5.82785415 C86.8400164,5.82785415 88.2596077,6.42557681 89.40526,7.62104005 C90.5509123,8.81650329 91.1237298,10.4104304 91.1237298,12.4028691 L91.1237298,22.1757322 L86.6407651,22.1757322 L86.6407651,13.090257 C86.6407651,10.619633 85.7342191,9.38433951 83.9210998,9.38433951 C83.0245024,9.38433951 82.2424819,9.70810595 81.5750149,10.3556485 C80.907548,11.0031911 80.5738195,11.9545663 80.5738195,13.2098027 L80.5738195,13.2098027 Z M94.739988,19.7848177 C94.739988,19.0476154 94.9940202,18.4249876 95.5020921,17.9169157 C96.0101639,17.4088438 96.6327917,17.1548117 97.369994,17.1548117 C98.1071964,17.1548117 98.7298241,17.4088438 99.237896,17.9169157 C99.7459679,18.4249876 100,19.0476154 100,19.7848177 C100,20.52202 99.7459679,21.1446478 99.237896,21.6527197 C98.7298241,22.1607915 98.1071964,22.4148237 97.369994,22.4148237 C96.6327917,22.4148237 96.0101639,22.1607915 95.5020921,21.6527197 C94.9940202,21.1446478 94.739988,20.52202 94.739988,19.7848177 L94.739988,19.7848177 Z"></path>
                </g>
            </g>
        </g>
    </g>
</svg>